,Location,Sample,Total active width,x downfan (m),w/d,Slope (50-m),Slope (7.5'),w_b (m),h_b (m),R (m),Sand fraction,D_50 (mm),D_16,D_25,D_75,D_84,Mode (mm),IQR (mm),sigma (mm),h_b/D_50,tau_star,tb,t*,tc_slope,tc_ratio,slope_D50 (mm)
0,Hanaupah,1,50.0,4990,16.0,0.005,0.005,2.3,0.14,0.14,1.0,1,1,-,1,1,1,0,1.0,140.0,0.42,6.867000000000002,0.42424242424242437,0.040987177096612565,10.350613394097014,10.350613394097014
1,Hanaupah,2,50.0,4689,22.0,0.012,0.006,7.35,0.33,0.16,0.47,6,3,4,9,10,6,5,0.54,55.0,0.19,18.8352,0.19393939393939394,0.047659716865603094,4.069251911132599,24.415511466795593
2,Hanaupah,3,50.0,4584,36.0,0.019,0.02,7.6,0.21,0.1,0.43,13,5,5,27,35,13,22,0.37,16.0,0.09,18.639,0.08857808857808858,0.05259170787596732,1.6842595944400933,21.89537472772121
3,Hanaupah,4,50.0,4500,16.0,0.021,0.02,7.2,0.46,0.11,0.3,27,6,8,43,60,21,35,0.32,17.0,0.05,22.6611,0.05185185185185185,0.05385940112407003,0.9627261122418793,25.993605030530745
4,Hanaupah,5,56.0,4015,14.0,0.046,0.040999999999999995,8.0,0.58,0.33,0.28,30,7,15,66,90,27,51,0.28,19.0,0.31,148.91580000000002,0.3066666666666667,0.06741508854179742,4.54893219455661,136.46796583669828
5,Hanaupah,6,84.0,3819,14.0,0.045,0.049,12.1,0.84,0.46,0.3,49,5,14,102,141,33,88,0.19,17.0,0.26,203.067,0.2560296846011132,0.06692118261212804,3.825839212750452,187.46612142477215
6,Hanaupah,7,63.0,3672,11.0,0.055,0.059000000000000004,10.5,0.97,0.5,0.26,26,6,8,73,112,26,65,0.23,37.0,0.64,269.77500000000003,0.6410256410256411,0.07175782134630486,8.933181484594368,232.2627185994536
7,Hanaupah,8,77.0,3500,17.0,0.057999999999999996,0.067,16.0,0.94,0.66,0.2,23,7,10,88,130,28,78,0.23,41.0,1.01,375.52680000000004,1.0086956521739132,0.07317071994737334,13.785509461973293,317.06671762538576
8,Hanaupah,9,77.0,3105,34.0,0.067,0.07400000000000001,30.7,0.89,0.53,0.14,24,8,12,80,99,27,68,0.28,37.0,0.89,348.3531000000001,0.896717171717172,0.07732860129737966,11.596190241029976,278.3085657847194
9,Hanaupah,10,49.0,2636,25.0,0.059000000000000004,0.052000000000000005,29.8,1.19,0.69,0.16,24,7,11,55,81,24,44,0.29,50.0,1.02,399.3651,1.028030303030303,0.07363841490375138,13.960516455629627,335.052394935111
11,Lucy Gray,1,400.0,7545,47.0,0.013999999999999999,0.024,7.1,0.15,0.15,0.8,7,4,4,13,17,8,9,0.49,21.0,0.18,20.601000000000003,0.18181818181818182,0.04917001982382173,3.697744732860473,25.884213130023312
12,Lucy Gray,2,340.0,7035,57.0,0.025,0.028999999999999998,12.0,0.21,0.09,0.7,7,3,4,12,16,7,8,0.43,30.0,0.2,22.072499999999998,0.19480519480519476,0.05627234478493326,3.461828284385854,24.232797990700984
13,Lucy Gray,3,610.0,6195,44.0,0.026000000000000002,0.038,8.8,0.2,0.13,0.62,10,5,6,19,23,11,13,0.46,20.0,0.21,33.15780000000001,0.2048484848484849,0.056854453584986864,3.6030332178335756,36.030332178335755
14,Lucy Gray,4,550.0,5495,31.0,0.027999999999999997,0.036000000000000004,10.3,0.33,0.1,0.61,15,5,6,31,36,14,25,0.37,22.0,0.12,27.468000000000004,0.11313131313131315,0.0579973325170744,1.9506295931456386,29.259443897184575
15,Lucy Gray,5,420.0,4840,35.0,0.028999999999999998,0.043,8.4,0.24,0.17,0.62,11,6,7,22,26,12,15,0.48,23.0,0.28,48.3633,0.27162534435261715,0.05855902052525449,4.638488518356868,51.02337370192554
16,Lucy Gray,6,390.0,4280,24.0,0.026000000000000002,0.045,6.3,0.26,0.17,0.5,20,7,9,41,50,19,32,0.37,13.0,0.13,43.360200000000006,0.13393939393939394,0.056854453584986864,2.3558294116604146,47.1165882332083
17,Lucy Gray,7,330.0,3705,45.0,0.038,0.053,9.55,0.21,0.16,0.5,22,6,8,52,67,21,44,0.3,10.0,0.17,59.644800000000004,0.16749311294765842,0.06338308506950409,2.642552232413273,58.136149113092
18,Lucy Gray,8,180.0,3225,68.0,0.034,0.053,13.5,0.2,0.16,0.44,21,7,10,50,61,21,40,0.34,10.0,0.16,53.366400000000006,0.156998556998557,0.06128474078385291,2.561788709399623,53.79756289739209
19,Lucy Gray,9,180.0,2755,17.0,0.044000000000000004,0.048,9.0,0.52,0.3,0.37,14,5,7,29,46,15,22,0.33,39.0,0.6,129.49200000000002,0.5714285714285715,0.06642464342792721,8.602659223132889,120.43722912386046
20,Lucy Gray,10,140.0,2260,23.0,0.040999999999999995,0.055,10.1,0.44,0.3,0.44,15,7,8,34,43,17,26,0.4,29.0,0.49,120.663,0.496969696969697,0.06491803378913132,7.65534117351688,114.83011760275319
21,Lucy Gray,11,140.0,1805,43.0,0.036000000000000004,0.055,23.6,0.55,0.35,0.42,17,6,8,40,54,18,33,0.33,32.0,0.45,123.60600000000001,0.44919786096256686,0.06234193427027776,7.205388575450844,122.49160578266437
22,Lucy Gray,12,180.0,1355,26.0,0.047,0.061,11.2,0.43,0.33,0.44,23,7,10,46,65,22,36,0.32,19.0,0.42,152.15310000000002,0.4086956521739131,0.06790646991576678,6.018508290607235,138.42569068396637
23,Lucy Gray,13,80.0,915,46.0,0.036000000000000004,0.053,17.6,0.38,0.37,0.41,16,6,7,44,54,17,37,0.33,25.0,0.52,130.66920000000002,0.5045454545454546,0.06234193427027776,8.093195382068895,129.49112611310235
24,Lucy Gray,14,70.0,445,81.0,0.048,0.049,32.5,0.4,0.46,0.4,24,7,11,61,83,24,50,0.29,17.0,0.55,216.60480000000004,0.5575757575757577,0.06839542917886027,8.152237134409178,195.65369122582027
25,Lucy Gray,15,130.0,0,72.0,0.044000000000000004,0.069,36.7,0.51,0.42,0.37,23,8,10,48,71,24,38,0.33,22.0,0.49,181.2888,0.4869565217391305,0.06642464342792721,7.330961772756723,168.61212077340463
26,Globe,1,50.0,7290,30.0,0.017,0.02,6.2,0.21,0.14,0.52,4,2,2,7,10,4,5,0.45,53.0,0.36,23.34780000000001,0.36060606060606076,0.05127240712916548,7.03314084118621,28.132563364744836
27,Globe,2,50.0,6294,20.0,0.024,0.022000000000000002,5.3,0.27,0.14,0.44,5,3,3,9,15,6,6,0.45,54.0,0.41,32.961600000000004,0.4072727272727273,0.05568242482772349,7.314206026996726,36.57103013498363
28,Globe,3,50.0,5502,34.0,0.034,0.033,9.1,0.27,0.18,0.41,6,3,4,15,22,7,11,0.37,45.0,0.63,60.037200000000006,0.6181818181818183,0.06128474078385291,10.087043043261017,60.5222582595661
29,Globe,4,80.0,4860,46.0,0.036000000000000004,0.043,12.9,0.28,0.17,0.42,4,2,3,7,12,5,4,0.41,70.0,0.92,60.03720000000001,0.9272727272727276,0.06234193427027776,14.873980702180676,59.495922808722696
30,Globe,5,60.0,4284,19.0,0.04,0.054000000000000006,6.4,0.33,0.22,0.47,13,5,6,25,34,13,19,0.38,25.0,0.41,86.32800000000002,0.41025641025641035,0.06440972930354105,6.36947887675497,82.80322539781461
31,Globe,6,70.0,4098,80.0,0.042,0.054000000000000006,31.2,0.39,0.23,0.44,15,4,6,27,45,14,21,0.3,27.0,0.4,94.7646,0.3903030303030303,0.06542319593358387,5.965820298648465,89.48730447972697
32,Globe,7,50.0,3708,43.0,0.04,0.052000000000000005,16.0,0.37,0.25,0.39,12,5,6,23,34,13,17,0.38,32.0,0.53,98.10000000000001,0.5050505050505051,0.06440972930354105,7.8412145263082005,94.09457431569841
33,Globe,8,65.0,3342,35.0,0.048,0.038,11.9,0.34,0.16,0.39,10,4,5,26,37,11,21,0.33,34.0,0.47,75.3408,0.46545454545454545,0.06839542917886027,6.80534578176766,68.0534578176766
34,Globe,9,70.0,2904,65.0,0.046,0.062,24.0,0.37,0.21,0.34,11,5,6,24,34,12,18,0.38,34.0,0.53,94.7646,0.5322314049586777,0.06741508854179742,7.894840998817256,86.8432509869898
35,Globe,10,80.0,2544,46.0,0.053,0.057,23.5,0.51,0.35,0.27,13,5,6,23,31,12,17,0.4,41.0,0.91,181.97549999999998,0.8648018648018647,0.07080709907734713,12.213490964474992,158.7753825381749
36,Globe,11,70.0,2010,72.0,0.057999999999999996,0.069,50.2,0.7,0.42,0.33,16,6,7,33,46,16,26,0.36,45.0,0.96,238.97159999999997,0.9227272727272726,0.07317071994737334,12.610608087373294,201.7697293979727
37,Globe,12,70.0,1866,82.0,0.055999999999999994,0.052000000000000005,57.2,0.7,0.29,0.32,14,6,7,33,49,16,26,0.35,50.0,0.71,159.3144,0.703030303030303,0.07223048212825975,9.733152573755929,136.26413603258302
38,Globe,13,50.0,1500,56.0,0.05,0.055999999999999994,26.2,0.47,0.32,0.33,12,5,7,22,31,12,15,0.4,41.0,0.85,156.96,0.8080808080808082,0.06936646275015959,11.649445222416924,139.7933426690031
39,Globe,14,80.0,1158,58.0,0.055,0.052000000000000005,37.5,0.65,0.41,0.22,10,5,6,21,29,11,15,0.42,65.0,1.36,221.2155,1.3666666666666665,0.07175782134630486,19.04554292515519,190.45542925155192
40,Globe,15,60.0,786,59.0,0.05,0.06,47.6,0.81,0.45,0.22,10,4,6,16,23,10,10,0.42,81.0,1.38,220.72500000000002,1.3636363636363638,0.06936646275015959,19.65843881282856,196.58438812828558
42,Globe,17,100.0,0,65.0,0.047,0.06,96.6,1.49,0.85,0.34,14,4,6,35,46,14,29,0.29,110.0,1.79,391.90950000000004,1.7294372294372296,0.06790646991576678,25.46793010419295,356.55102145870126
50,Sheep Creek,1,49.0,5286,27.0,0.013999999999999999,0.013000000000000001,7.0,0.26,0.15,0.7,9,3,4,20,55,11,16,0.23,29.0,0.14,20.601000000000003,0.14141414141414144,0.04917001982382173,2.8760236811137014,25.884213130023312
51,Sheep Creek,2,28.0,5010,18.0,0.023,0.026000000000000002,8.05,0.44,0.24,0.61,10,3,4,24,38,10,20,0.28,44.0,0.34,54.1512,0.33454545454545453,0.055084092628914644,6.073358724435909,60.7335872443591
52,Sheep Creek,3,28.0,4770,33.0,0.031,0.031,9.1,0.28,0.18,0.59,19,4,6,49,79,18,43,0.23,15.0,0.18,54.7398,0.1779904306220096,0.0596648690485776,2.983169718802104,56.680224657239975
53,Sheep Creek,4,42.0,4380,37.0,0.04,0.043,20.8,0.56,0.3,0.44,25,3,5,64,94,19,59,0.18,22.0,0.29,117.72,0.2909090909090909,0.06440972930354105,4.516539567153523,112.91348917883809
54,Sheep Creek,5,35.0,4014,28.0,0.043,0.038,19.5,0.7,0.43,0.42,24,4,6,54,67,19,48,0.24,29.0,0.46,181.38690000000003,0.466919191919192,0.06592535549698335,7.082543406846818,169.98104176432363
55,Sheep Creek,6,49.0,3612,21.0,0.046,0.049,16.5,0.78,0.43,0.34,33,8,13,54,65,26,41,0.35,24.0,0.37,194.0418,0.3632690541781451,0.06741508854179742,5.388542269034,177.82189487812198
56,Sheep Creek,7,20.0,3096,11.0,0.05,0.062,9.4,0.88,0.56,0.28,30,8,11,52,62,25,41,0.36,29.0,0.56,274.68000000000006,0.5656565656565659,0.06936646275015959,8.154611655691848,244.63834967075542
57,Sheep Creek,8,35.0,2982,16.0,0.052000000000000005,0.062,14.2,0.87,0.46,0.24,40,8,19,70,85,30,51,0.31,22.0,0.37,234.65520000000004,0.3624242424242425,0.07032890106406457,5.153276063479224,206.13104253916896
58,Sheep Creek,9,28.0,2574,41.0,0.052000000000000005,0.051,23.2,0.57,0.38,0.26,35,6,12,63,88,26,51,0.26,16.0,0.34,193.84560000000005,0.3421645021645022,0.07032890106406457,4.865204730738149,170.28216557583522
59,Sheep Creek,10,49.0,2280,19.0,0.055,0.051,17.7,0.91,0.44,0.28,61,8,21,94,111,38,73,0.27,15.0,0.24,237.40200000000002,0.24043715846994537,0.07175782134630486,3.3506752847134287,204.39119236751915
60,Sheep Creek,11,35.0,1962,30.0,0.059000000000000004,0.071,24.3,0.8,0.43,0.24,35,11,16,61,76,31,45,0.38,23.0,0.44,248.8797,0.4393073593073593,0.07363841490375138,5.965736224517505,208.8007678581127
61,Sheep Creek,12,35.0,1650,21.0,0.055999999999999994,0.129,14.4,0.69,0.42,0.17,20,6,8,42,55,19,34,0.33,35.0,0.71,230.73119999999997,0.7127272727272727,0.07223048212825975,9.867402954083596,197.34805908167195
62,Sheep Creek,13,20.0,1404,27.0,0.065,0.071,26.1,0.96,0.54,0.3,33,5,10,52,67,22,42,0.27,29.0,0.65,344.3310000000001,0.6446280991735539,0.07641396442329665,8.435998629813577,278.387954783848
63,Sheep Creek,14,20.0,1062,14.0,0.073,0.068,13.6,0.98,0.5,0.3,19,5,9,41,49,17,32,0.32,52.0,1.17,358.065,1.164274322169059,0.08004533956887394,14.545185621547333,276.35852680939934
64,Sheep Creek,15,49.0,822,31.0,0.071,0.068,21.0,0.67,0.31,0.21,28,5,8,53,70,21,45,0.27,24.0,0.47,215.9181,0.4764069264069264,0.07914400688948854,6.019494654499229,168.54585032597842
65,Sheep Creek,16,21.0,534,20.0,0.068,0.079,18.8,0.96,0.7,0.15,21,6,11,41,48,18,30,0.35,46.0,1.37,466.956,1.3737373737373737,0.07778413073433246,17.6608951050607,370.8787972062747
66,Sheep Creek,17,56.0,288,40.0,0.069,0.084,29.9,0.75,0.43,0.26,27,6,11,41,46,20,30,0.36,28.0,0.66,291.0627,0.665993265993266,0.07823851778833626,8.512345131524869,229.83331855117146
67,Sheep Creek,18,35.0,0,21.0,0.071,0.068,25.6,1.23,0.54,0.22,27,9,14,48,56,24,34,0.4,46.0,0.86,376.11539999999997,0.8606060606060605,0.07914400688948854,10.873925827482477,293.59599734202686
