distance,width
20,99
30,101
40,100
50,96
60,94
70,89
80,86
90,81
100,77
110,75
120,71
130,68
140,63
150,58
160,51
170,46
180,39
190,33
200,27
210,22
220,18
230,16
240,15
250,16
260,15
270,16
280,17
290,18
300,20
310,22
320,24
330,25
340,30
350,32
360,36
370,38
380,41
390,47
400,50
410,55
420,56
430,59
440,59
450,59
460,56
470,56
480,57
490,59
500,60
510,62
520,62
530,63
540,62
550,63
560,63
570,63
580,63
590,63
600,62
610,63
620,63
630,64
640,63
650,64
660,63
670,61
680,61
690,60
700,58
710,57
720,52
730,49
740,44
750,42
760,43
770,42
780,41
790,40
800,39
810,38
820,37
830,36
840,34
850,35
860,33
870,32
880,32
890,32
900,30
910,30
920,29
930,28
940,28
950,26
960,24
970,21
980,24
990,28
1000,31
1010,34
1020,36
1030,40
1040,41
1050,42
1060,42
1070,43
1080,43
1090,44
1100,44
1110,46
1120,46
1130,47
1140,47
1150,43
1160,41
1170,39
1180,36
1190,34
1200,32
1210,30
1220,30
1230,28
1240,28
1250,27
1260,26
1270,26
1280,25
1290,24
1300,27
1310,32
1320,34
1330,38
1340,41
1350,45
1360,48
1370,49
1380,47
1390,46
1400,45
1410,43
1420,42
1430,42
1440,40
1450,39
1460,38
1470,36
1480,35
1490,33
1500,31
1510,31
1520,31
1530,32
1540,31
1550,31
1560,35
1570,39
1580,45
1590,48
1600,48
1610,50
1620,51
1630,55
1640,57
1650,59
1660,62
1670,61
1680,59
1690,57
1700,56
1710,53
1720,49
1730,44
1740,41
1750,40
1760,36
1770,37
1780,40
1790,40
1800,40
1810,40
1820,41
1830,41
1840,42
1850,42
1860,44
1870,45
1880,46
1890,47
1900,49
1910,51
1920,54
1930,54
1940,56
1950,58
1960,60
1970,62
1980,63
1990,65
2000,68
2010,69
2020,64
2030,59
2040,57
2050,55
2060,53
2070,54
2080,52
2090,54
2100,53
2110,49
2120,46
2130,45
2140,46
2150,44
2160,45
2170,45
2180,46
2190,46
2200,44
2210,45
2220,46
2230,45
2240,47
2250,47
2260,46
2270,46
2280,44
2290,39
2300,34
2310,31
2320,33
2330,34
2340,36
2350,34
2360,35
2370,37
2380,34
2390,31
2400,31
2410,30
2420,30
2430,28
2440,28
2450,27
2460,22
2470,20
2480,20
2490,21
2500,23
2510,26
2520,29
2530,33
2540,34
2550,38
2560,38
2570,38
2580,37
2590,38
2600,41
2610,45
2620,47
2630,51
2640,55
2650,58
2660,60
2670,61
2680,59
2690,56
2700,55
2710,56
2720,57
2730,55
2740,56
2740,56
2740,46
