distance,width
20,136
30,156
40,153
50,154
60,153
70,151
80,150
90,151
100,150
110,148
120,148
130,147
140,147
150,145
160,146
170,147
180,149
190,151
200,152
210,154
220,154
230,156
240,156
250,157
260,158
270,158
280,159
290,159
300,165
310,172
320,180
330,187
340,184
350,193
360,199
370,207
380,213
390,221
400,226
410,228
420,226
430,224
440,222
450,219
460,218
470,216
480,215
490,214
500,211
510,208
520,205
530,200
540,195
550,187
560,182
570,180
580,174
590,176
600,178
610,179
620,181
630,183
640,185
650,186
660,188
670,190
680,189
690,192
700,195
710,197
720,201
730,204
740,205
750,207
760,211
770,214
780,216
790,215
800,217
810,217
820,218
830,219
840,218
850,219
860,220
870,220
880,221
890,221
900,220
910,208
920,194
930,187
940,185
950,184
960,183
970,182
980,181
990,180
1000,180
1010,183
1020,183
1030,184
1040,186
1050,187
1060,189
1070,191
1080,191
1090,193
1100,199
1110,205
1120,212
1130,218
1140,224
1150,234
1160,243
1170,251
1180,258
1190,266
1200,277
1210,288
1220,298
1230,310
1240,320
1250,330
1260,342
1270,352
1280,362
1290,369
1300,371
1310,373
1320,375
1330,380
1340,390
1350,397
1360,373
1370,376
1380,381
1390,388
1400,396
1410,407
1420,416
1430,427
1440,438
1450,447
1460,458
1470,468
1480,479
1490,488
1500,500
1510,509
1520,520
1530,530
1540,541
1550,550
1560,562
1570,571
1580,582
1590,589
1600,595
1610,602
1620,607
1630,609
1640,611
1650,615
1660,617
1670,620
1680,622
1690,626
1700,628
1710,631
1720,633
1730,635
1740,632
1750,627
1760,623
1760,623
1760,620
