distance,width
20,42
30,44
40,45
50,48
60,51
70,54
80,60
90,64
100,71
110,78
120,84
130,93
140,101
150,110
160,114
170,120
180,125
190,130
200,135
210,137
220,139
230,141
240,143
250,146
260,146
270,145
280,147
290,147
300,149
310,147
320,147
330,150
340,151
350,153
360,153
370,148
380,147
390,146
400,146
410,146
420,146
430,146
440,145
450,142
460,140
470,136
480,137
490,138
500,138
510,140
520,142
530,144
540,142
550,138
560,135
570,132
580,129
590,127
600,125
610,125
620,118
630,116
640,117
650,121
660,127
670,131
680,133
690,135
700,132
710,126
720,123
730,121
740,119
750,121
760,124
770,127
780,128
790,125
800,125
810,126
820,128
830,134
840,141
850,143
860,141
870,138
880,137
890,133
900,130
910,127
920,125
930,122
940,118
950,117
960,113
970,111
980,110
990,109
1000,108
1010,107
1020,105
1030,103
1040,99
1050,96
1060,97
1070,95
1080,95
1090,96
1100,97
1110,98
1120,99
1130,100
1140,102
1150,102
1160,100
1170,99
1180,98
1190,99
1200,101
1210,103
1220,106
1230,108
1240,108
1250,109
1260,109
1270,106
1280,102
1290,101
1300,98
1310,101
1320,108
1330,114
1340,121
1350,123
1360,124
1370,128
1380,132
1390,136
1400,142
1410,150
1420,162
1430,175
1440,171
1450,152
1460,130
1460,130
1460,73
