site_id,latitude_utm,longitude_utm,distance_m,means_mm,stdevs_mm,D25_mm,D50_mm,D75_mm,D84_mm,D90_mm
G8-A-1,4069687.79034066,490067.769452291,43.8414763510123,53.9,37.1839786040518,27,52.5,74.5,90,94
G8-A-2,4069517.69415236,490011.081410287,205.589924182337,52.8446601941748,30.6798259321367,32,51,64,79,89
G8-A-3,4069549.81574635,489863.603084225,287.763630966695,44.8,29.1060941466161,22.5,41,60.5,74.5,89.5
G8-A-4,4069522.40259092,489687.225606083,458.10840750567,46.852,30.5907122370095,26,42,62,73,85
G8-A-5,4069408.29423322,489659.425805386,535.896880663478,54.57,30.8154191762158,37.5,51,67.5,82.5,95
G8-A-6,4069205.57747634,489607.68502203,703.526528071829,48.8904761904762,29.7553667499774,31,43,60,72,86.5
G8-A-7,4069019.88430408,489519.10565581,899.502255645057,50.264,30.3272530610311,28,42,62,81,92
G8-A-8,4068837.61255572,489439.002399871,1091.12956040895,51.56,28.9898334083537,32.5,49,64.5,80,93.5
G8-A-9,4068676.31281639,489355.44324174,1270.12988881751,50.3975903614458,27.9125433906532,32,47,66,77,92
G8-A-10,4068509.61871481,489244.20172997,1470.33303298948,45.005,27.0573129637531,27.5,42,58,73,80.5
G8-A-11,4068339.91831477,489136.528079388,1670.94092395157,56.385,29.842852319835,36,52.5,71,81.5,88.5
G8-A-12,4068168.24995817,489012.95723678,1882.45846771949,58.328,34.615606885103,36,55,73,83,99
G8-A-13,4068007.34635546,488885.385350314,2087.58609985518,50.84,27.0068757381101,31,46,68,75,86.5
G8-A-14,4067877.76990239,488722.229922989,2288.93811237581,52.7114427860697,29.3529300978939,32,47,70,84,90
G8-A-15,4067761.79423708,488514.451847121,2508.96056906573,54.135,27.8936297469161,34,51,68.5,77.5,88.5
