site_id,latitude_utm,longitude_utm,distance_m,means_mm,stdevs_mm,D25_mm,D50_mm,D75_mm,D84_mm,D90_mm
HP-A-1,4006986.65506198,503554.997358119,1669.87503818631,65.64,50.4679611388274,31,53,84.5,109.5,125.5
HP-A-2,4007092.5738853,504274.970126053,2397.1195516822,65.813,48.0646133002767,37,60,84,96,126.5
HP-A-7,4007266.9735181,504967.919919734,3110.3205994724,58.392,43.8186985639053,25,52,79,93,105
HP-A-8,4007378.08458166,505656.928184648,3807.92847014898,90.11,51.6422973503816,53.5,70,114.5,143.5,171
HP-A-9,4007255.54956206,506346.628428119,4469.85630449978,54.206,41.3721008539923,27,45,71,83,100
HP-A-10,4007248.31930909,507040.749554368,5158.02234700877,57.635,39.1643353003204,30,51,79,93,104
HP-A-11,4007242.82014116,507747.185150351,5860.02969012008,55.62,41.2331131126636,24,48,77.5,92,103
HP-A-12,4007390.69596801,508482.596397642,6606.77841515773,65.88,67.0354754998992,22.5,48,80.5,107,148.5
HP-A-6,4007862.90047531,509060.34672153,7243.87762570085,55.922,38.1393415902492,28,51,75,88,107
HP-A-5,4007954.59776024,509749.727876533,7938.98726953137,54.018,43.28552921825,22.5,47,73,89.5,100
HP-A-4,4008178.47608957,510458.440107939,8675.20989644387,54.82,50.4276897665308,18.5,40.5,75.5,94,124
HP-A-3,4008475.88517918,511115.253593147,9375.39354843275,20.785,18.7015975246769,5,15,33,42,48
