site_id,latitude_utm,longitude_utm,distance_m,means_mm,stdevs_mm,D25_mm,D50_mm,D75_mm,D84_mm,D90_mm
SO1-3b-4,3980903,526962,218.155151727993,81.35,81.0061954443595,33.5,55.5,95.5,127.5,197.5
SO1-3b-5,3980842,526815,372.124219329795,83.9353233830846,81.5298712648829,30,62,110,136,178
SO1-3b-6,3980785,526676,520.245882973382,82.08,62.5548152462385,39.5,65,105,132,162
SO1-3b-7,3980771,526511,673.426824813542,73.1194029850746,59.7959484408197,33,60,96,119,142
SO1-3b-15,3980787,526312,853.647270983312,82.8168316831683,63.6857748828517,35,69,112,129,163
SO1-3b-14,3980729,526157,1018.99133539083,80.6035856573705,77.4002076079542,26,67,113,142,162
SO1-3b-13,3980700,525978,1198.40144758108,83.2910052910053,89.5945463890817,30,56,90,141,205
SO1-3b-1,3980612,525859,1338.76400990188,110.62,107.64575867602,42,86,123,185,250
SO1-3b-2,3980538,525733,1482.28509263423,78.9154929577465,80.442463537877,22,53,99,159,192
SO1-3b-16,3980431,525695,1557.25754579802,68.3,85.537452807477,16,40,75,112.5,180.5
SO1-3b-3,3980715,525596,1564.57591830712,73.9513641755635,80.8557912006791,20,46,99,135,162
SO1-3b-12,3980621,525451,1727.35142872125,65.1425722831505,56.9024142405131,27,47,87,122,151
SO1-3b-11,3980658,525321,1845.40830246934,70.388,61.8319963738648,19.5,50,106.5,134,160
SO1-3b-10,3980694,525175,1981.59001348552,60.5054617676266,56.8603494058198,25,43,75,102,130
SO1-3b-9,3980773,525042,2100.77120148771,44.561,35.0870259346514,18,35,62,84,95
SO1-3b-8,3980812,524897,2240.14981098587,38.44,37.6982561380711,11,27,54.5,71.5,89.5
