site_id,latitude_utm,longitude_utm,distance_m,means_mm,stdevs_mm,D25_mm,D50_mm,D75_mm,D84_mm,D90_mm
UB-A-1,4106312.8070906,459382.289374932,16.4577553799883,24.626,20.7233460065447,10,21,32,40,52
UB-A-2,4106029.66571154,459157.52606834,348.060967029768,43.4325,32.2225739688395,22,37,55,73,82
UB-A-3,4105685.88176896,458925.343406482,761.88817224791,44.798,32.8356667984893,22,40,62,70,84
UB-A-11,4105531.62931211,458707.044079563,1019.44519267014,49.775,36.6912659893336,22.5,45,67,79,96
UB-A-10,4105453.47996141,458468.848844457,1242.08637894176,47.705,31.1947958244424,25,42,62.5,80,93
UB-A-9,4105341.32292401,458243.544727739,1485.35647576054,42.65,28.9511194383161,21.5,37.5,59,70,81
UB-A-8,4105169.11464856,458047.352533309,1746.35270897066,44.48,39.7600010785777,15,38,55,68,91.5
UB-A-7,4104970.21185593,457890.834628536,1994.93573615271,44.18,36.85543965744,18,35.5,59,82,98
UB-A-6,4104776.94089477,457715.05145803,2254.90304895897,36.51,30.3059358043023,15,31,47,60.5,70
UB-A-5,4104566.67452451,457569.037924786,2505.12306354312,36.404,32.632794454772,12,28,47.5,63,79
UB-A-4,4104332.73885566,457494.535792986,2723.08896329664,44.3535353535354,36.5318419317034,14,37.5,70,82,92
UB-A-12,4104089.49499837,457353.853456651,2996.71308174474,20.46,19.9541528715625,5,18,31,37.5,44.5
UB-A-13,4103848.23995973,457215.661988388,3268.44724669208,8.21,8.31942433598187,2,5,11,17,21
UB-A-14,4103593.59995786,457047.616987173,3570.77280134036,11.48,11.6328471284217,3,7,17,23,28
UB-A-15,4103262.92036123,456977.488578958,3870.33499852744,9.29,8.08408530654668,3,7,12.5,16,21
