﻿Fan,Site,Wbf,Hbf,Slope,Surface
GC,A-1,37.40,0.80,0.013964,Q4
GC,B-1,10.00,0.40,0.103340,Q4
HP,A-1,15.30,1.70,0.094528,Q4
HP,B-1,6.70,0.40,0.096289,Q4
HP,A-2,40.20,,0.089248,Q4
HP,B-2,7.20,0.60,0.091007,Q4
SO2,4-3,39.30,0.80,0.068173,Q4
SO2,4-4,112.00,0.45,0.073435,Q4
SO2,4-5,34.70,0.50,0.057660,Q4
SO2,3b-1,,1.10,0.083972,Q4
SO2,4-6,30.00,0.80,0.068173,Q4
SO2,4-7,42.00,0.30,0.055909,Q4
SO2,4-8,7.60,0.40,0.066420,Q4
SO2,4-8,6.60,0.50,0.066420,Q4
SO2,4-9,14.00,0.40,0.061163,Q4
SO2,4-11,30.30,0.30,0.073435,Q4
SO2,4-12,8.10,0.60,0.071681,Q4
SO2,4-13,20.40,0.50,0.066420,Q4
SO2,4-14,12.90,0.40,0.066420,Q4
SO2,4-15,4.30,0.30,0.045410,Q4
GC,A-2,18.00,1.20,0.098051,Q4
GC,A-3,30.40,0.30,0.103340,Q4
GC,A-3,6.05,0.30,0.103340,Q4
GC,A-4,4.40,0.20,0.108635,Q4
GC,A-4,65.90,0.20,0.108635,Q4
GC,A-5,9.90,,0.091007,Q4
GC,A-6,8.15,1.20,0.094528,Q4
GC,A-7,3.40,,0.101576,Q4
GC,A-9,17.80,,0.083972,Q4
GC,A-10,17.50,1.50,0.082215,Q4
GC,A-11,3.30,0.40,0.073435,Q4
GC,A-12,8.60,0.20,0.055909,Q4
GC,A-13,12.30,0.90,0.059411,Q4
GC,A-13,6.20,0.50,0.059411,Q4
GC,A-14,3.00,0.20,0.043661,Q4
GC,A-15,2.85,0.15,0.017455,Q4
HP,A-3,2.20,0.20,0.019201,Q4
HP,A-4,7.08,0.70,0.066420,Q4
HP,A-4,4.42,0.30,0.066420,Q4
HP,A-5,4.32,0.35,0.061163,Q4
HP,A-5,8.10,0.50,0.061163,Q4
HP,A-5,8.10,1.00,0.061163,Q4
HP,A-6,16.20,0.60,0.066420,Q4
HP,A-6,20.00,1.20,0.066420,Q4
HP,A-6,1.15,0.20,0.066420,Q4
HP,A-7,20.00,0.45,0.073435,Q4
HP,A-7,5.00,0.12,0.073435,Q4
HP,A-8,55.60,1.30,0.085730,Q4
HP,A-8,33.16,0.70,0.085730,Q4
HP,A-8,1.82,0.15,0.085730,Q4
HP,A-9,8.05,0.90,0.078702,Q4
HP,A-9,3.50,0.25,0.078702,Q4
HP,A-10,7.72,0.80,0.091007,Q4
HP,A-10,0.95,0.25,0.091007,Q4
HP,A-11,11.20,0.95,0.080458,Q4
HP,A-11,11.20,0.35,0.080458,Q4
HP,A-11,1.75,0.20,0.080458,Q4
HP,A-12,10.64,1.00,0.075190,Q4
HP,A-12,4.90,,0.075190,Q4
SO1,3b-1,5.30,1.00,0.098051,Q4
SO1,3b-2,5.10,1.00,0.091007,Q4
SO1,3b-3,4.80,0.80,0.099813,Q4
SO1,4-1,5.50,1.50,0.098051,Q4
SO1,4-2,23.80,1.40,0.098051,Q4
SO1,4-2,12.50,1.40,0.098051,Q4
SO1,4-3,25.15,1.10,0.103340,Q4
SO1,4-3,10.65,1.10,0.103340,Q4
SO1,4-4,44.70,1.50,0.089248,Q4
SO1,4-5,45.7,1.20,0.108635,Q4
SO1,4-6,59.3,1.00,0.121013,Q4
SO1,4-6,14,1.00,0.121013,Q4
SO1,4-8,23.9,1.40,0.094528,Q4
SO1,3b-8,1.5,0.30,0.061163,Q3
SO1,3b-9,1.3,0.30,0.069927,Q3
SO1,3b-10,2.5,0.60,0.083972,Q3
SO1,3b-11,4.8,0.50,0.105104,Q3
SO1,3b-12,6.3,0.60,0.089248,Q3
SO1,3b-13,7.5,0.80,0.108635,Q3
SO1,4-9,25.5,1.60,0.085730,Q4
SO1,4-9,13,1.60,0.085730,Q4
SO1,4-10,59.1,,0.094528,Q4
SO1,4-11,8.80,1.00,0.076946,Q4
SO1,4-11,24.40,1.80,0.076946,Q4
SO1,4-12,21.6,0.60,0.092767,Q4
SO1,4-12,9.2,0.60,0.092767,Q4
SO1,4-13,17.7,0.50,0.096289,Q4
SO1,4-13,6.1,0.50,0.096289,Q4
SO1,4-14,9.1,0.60,0.076946,Q4
SO1,4-15,60,0.30,0.040164,Q4
SO1,4-16,7,0.40,0.036668,Q4