<?xml version="1.0" encoding="UTF-8"?>
<kml xmlns="http://www.opengis.net/kml/2.2" xmlns:gx="http://www.google.com/kml/ext/2.2" xmlns:kml="http://www.opengis.net/kml/2.2" xmlns:atom="http://www.w3.org/2005/Atom">
<Document>
	<name>Hanaupah_widths.kml</name>
	<Style id="s_ylw-pushpin_hl">
		<IconStyle>
			<scale>1.3</scale>
			<Icon>
				<href>http://maps.google.com/mapfiles/kml/pushpin/ylw-pushpin.png</href>
			</Icon>
			<hotSpot x="20" y="2" xunits="pixels" yunits="pixels"/>
		</IconStyle>
	</Style>
	<Style id="s_ylw-pushpin">
		<IconStyle>
			<scale>1.1</scale>
			<Icon>
				<href>http://maps.google.com/mapfiles/kml/pushpin/ylw-pushpin.png</href>
			</Icon>
			<hotSpot x="20" y="2" xunits="pixels" yunits="pixels"/>
		</IconStyle>
	</Style>
	<StyleMap id="m_ylw-pushpin">
		<Pair>
			<key>normal</key>
			<styleUrl>#s_ylw-pushpin</styleUrl>
		</Pair>
		<Pair>
			<key>highlight</key>
			<styleUrl>#s_ylw-pushpin_hl</styleUrl>
		</Pair>
	</StyleMap>
	<Folder>
		<name>Hanaupah_widths</name>
		<open>1</open>
		<Placemark>
			<name>Untitled Path</name>
			<styleUrl>#m_ylw-pushpin</styleUrl>
			<LineString>
				<tessellate>1</tessellate>
				<coordinates>
					-116.9660748701599,36.20870311538052,0 -116.9659716855724,36.20841315069604,0 
				</coordinates>
			</LineString>
		</Placemark>
		<Placemark>
			<name>Untitled Path</name>
			<styleUrl>#m_ylw-pushpin</styleUrl>
			<LineString>
				<tessellate>1</tessellate>
				<coordinates>
					-116.9665619411947,36.20855757575005,0 -116.9666423468406,36.20828009480044,0 
				</coordinates>
			</LineString>
		</Placemark>
		<Placemark>
			<name>Untitled Path</name>
			<styleUrl>#m_ylw-pushpin</styleUrl>
			<LineString>
				<tessellate>1</tessellate>
				<coordinates>
					-116.9641158107973,36.20896045067165,0 -116.963956003199,36.20876811831615,0 
				</coordinates>
			</LineString>
		</Placemark>
		<Placemark>
			<name>Untitled Path</name>
			<styleUrl>#m_ylw-pushpin</styleUrl>
			<LineString>
				<tessellate>1</tessellate>
				<coordinates>
					-116.9627926708633,36.20876290243822,0 -116.9628272245409,36.20863151333247,0 
				</coordinates>
			</LineString>
		</Placemark>
		<Placemark>
			<name>Untitled Path</name>
			<styleUrl>#m_ylw-pushpin</styleUrl>
			<LineString>
				<tessellate>1</tessellate>
				<coordinates>
					-116.9587072987464,36.21008614728962,0 -116.9586907801128,36.21029605378209,0 
				</coordinates>
			</LineString>
		</Placemark>
		<Placemark>
			<name>Untitled Path</name>
			<styleUrl>#m_ylw-pushpin</styleUrl>
			<LineString>
				<tessellate>1</tessellate>
				<coordinates>
					-116.9571586356673,36.20894825002696,0 -116.9572390540316,36.20913369570955,0 
				</coordinates>
			</LineString>
		</Placemark>
		<Placemark>
			<name>Untitled Path</name>
			<styleUrl>#m_ylw-pushpin</styleUrl>
			<LineString>
				<tessellate>1</tessellate>
				<coordinates>
					-116.9562734872616,36.2091621098115,0 -116.9561623569276,36.20947542188816,0 
				</coordinates>
			</LineString>
		</Placemark>
		<Placemark>
			<name>Untitled Path</name>
			<styleUrl>#m_ylw-pushpin</styleUrl>
			<LineString>
				<tessellate>1</tessellate>
				<coordinates>
					-116.9552359915657,36.20896500224015,0 -116.955144339031,36.20925330877842,0 
				</coordinates>
			</LineString>
		</Placemark>
		<Placemark>
			<name>Untitled Path</name>
			<styleUrl>#m_ylw-pushpin</styleUrl>
			<LineString>
				<tessellate>1</tessellate>
				<coordinates>
					-116.9558398682568,36.20752096522597,0 -116.9560657323272,36.20784452500681,0 
				</coordinates>
			</LineString>
		</Placemark>
		<Placemark>
			<name>Untitled Path</name>
			<styleUrl>#m_ylw-pushpin</styleUrl>
			<LineString>
				<tessellate>1</tessellate>
				<coordinates>
					-116.9530702576862,36.20853565786618,0 -116.9530976228164,36.20892149720385,0 
				</coordinates>
			</LineString>
		</Placemark>
		<Placemark>
			<name>Untitled Path</name>
			<styleUrl>#m_ylw-pushpin</styleUrl>
			<LineString>
				<tessellate>1</tessellate>
				<coordinates>
					-116.9538333647901,36.20952591844377,0 -116.9535752062632,36.21009887744209,0 
				</coordinates>
			</LineString>
		</Placemark>
		<Placemark>
			<name>Untitled Path</name>
			<styleUrl>#m_ylw-pushpin</styleUrl>
			<LineString>
				<tessellate>1</tessellate>
				<coordinates>
					-116.9548731610168,36.20971810839539,0 -116.9549055352131,36.21031158844355,0 
				</coordinates>
			</LineString>
		</Placemark>
		<Placemark>
			<name>Untitled Path</name>
			<styleUrl>#m_ylw-pushpin</styleUrl>
			<LineString>
				<tessellate>1</tessellate>
				<coordinates>
					-116.9565304896178,36.20982534047459,0 -116.9565500296911,36.21048509667587,0 
				</coordinates>
			</LineString>
		</Placemark>
		<Placemark>
			<name>Untitled Path</name>
			<styleUrl>#m_ylw-pushpin</styleUrl>
			<LineString>
				<tessellate>1</tessellate>
				<coordinates>
					-116.9584214381022,36.20811334849572,0 -116.9584485710271,36.20830182809176,0 
				</coordinates>
			</LineString>
		</Placemark>
		<Placemark>
			<name>Untitled Path</name>
			<styleUrl>#m_ylw-pushpin</styleUrl>
			<LineString>
				<tessellate>1</tessellate>
				<coordinates>
					-116.9527372798667,36.20922840417669,0 -116.9526673071871,36.20943077294242,0 
				</coordinates>
			</LineString>
		</Placemark>
		<Placemark>
			<name>Untitled Path</name>
			<styleUrl>#m_ylw-pushpin</styleUrl>
			<LineString>
				<tessellate>1</tessellate>
				<coordinates>
					-116.9523980954329,36.20948280542707,0 -116.9523853401281,36.20991051164538,0 
				</coordinates>
			</LineString>
		</Placemark>
		<Placemark>
			<name>Untitled Path</name>
			<styleUrl>#m_ylw-pushpin</styleUrl>
			<LineString>
				<tessellate>1</tessellate>
				<coordinates>
					-116.9511223184377,36.20869240496184,0 -116.9512069286244,36.20945276711418,0 
				</coordinates>
			</LineString>
		</Placemark>
		<Placemark>
			<name>Untitled Path</name>
			<styleUrl>#m_ylw-pushpin</styleUrl>
			<LineString>
				<tessellate>1</tessellate>
				<coordinates>
					-116.9501299657833,36.21030709517203,0 -116.950147006879,36.2104653173545,0 
				</coordinates>
			</LineString>
		</Placemark>
		<Placemark>
			<name>Untitled Path</name>
			<styleUrl>#m_ylw-pushpin</styleUrl>
			<LineString>
				<tessellate>1</tessellate>
				<coordinates>
					-116.954721007215,36.20857452529921,0 -116.9543664678657,36.20917010123789,0 
				</coordinates>
			</LineString>
		</Placemark>
		<Placemark>
			<name>Untitled Path</name>
			<styleUrl>#m_ylw-pushpin</styleUrl>
			<LineString>
				<tessellate>1</tessellate>
				<coordinates>
					-116.9613903292788,36.20884018006065,0 -116.9616821841805,36.2095910200167,0 
				</coordinates>
			</LineString>
		</Placemark>
		<Placemark>
			<name>Untitled Path</name>
			<styleUrl>#m_ylw-pushpin</styleUrl>
			<LineString>
				<tessellate>1</tessellate>
				<coordinates>
					-116.9572482861386,36.20940115255029,0 -116.9572570086497,36.20981760558344,0 
				</coordinates>
			</LineString>
		</Placemark>
		<Placemark>
			<name>Untitled Path</name>
			<styleUrl>#m_ylw-pushpin</styleUrl>
			<LineString>
				<tessellate>1</tessellate>
				<coordinates>
					-116.9494309563264,36.20865160181901,0 -116.9496994814421,36.20950634891202,0 
				</coordinates>
			</LineString>
		</Placemark>
		<Placemark>
			<name>Untitled Path</name>
			<styleUrl>#m_ylw-pushpin</styleUrl>
			<LineString>
				<tessellate>1</tessellate>
				<coordinates>
					-116.9532468669742,36.2101692566029,0 -116.9532545877795,36.21052540263499,0 
				</coordinates>
			</LineString>
		</Placemark>
		<Placemark>
			<name>Untitled Path</name>
			<styleUrl>#m_ylw-pushpin</styleUrl>
			<LineString>
				<tessellate>1</tessellate>
				<coordinates>
					-116.9556024180983,36.2097026393795,0 -116.9556632571043,36.21036615399662,0 
				</coordinates>
			</LineString>
		</Placemark>
		<Placemark>
			<name>Untitled Path</name>
			<styleUrl>#m_ylw-pushpin</styleUrl>
			<LineString>
				<tessellate>1</tessellate>
				<coordinates>
					-116.9567922895164,36.20792042750203,0 -116.9567478504216,36.2081214911757,0 
				</coordinates>
			</LineString>
		</Placemark>
		<Placemark>
			<name>Untitled Path</name>
			<styleUrl>#m_ylw-pushpin</styleUrl>
			<LineString>
				<tessellate>1</tessellate>
				<coordinates>
					-116.957313669909,36.20786157464406,0 -116.9572799109174,36.20822962078048,0 
				</coordinates>
			</LineString>
		</Placemark>
		<Placemark>
			<name>Untitled Path</name>
			<styleUrl>#m_ylw-pushpin</styleUrl>
			<LineString>
				<tessellate>1</tessellate>
				<coordinates>
					-116.9574994136269,36.20706944492473,0 -116.9574903332869,36.20724631466354,0 
				</coordinates>
			</LineString>
		</Placemark>
		<Placemark>
			<name>Untitled Path</name>
			<styleUrl>#m_ylw-pushpin</styleUrl>
			<LineString>
				<tessellate>1</tessellate>
				<coordinates>
					-116.9623162870746,36.20923974172565,0 -116.9624363168292,36.20987024501156,0 
				</coordinates>
			</LineString>
		</Placemark>
		<Placemark>
			<name>Untitled Path</name>
			<styleUrl>#m_ylw-pushpin</styleUrl>
			<LineString>
				<tessellate>1</tessellate>
				<coordinates>
					-116.9594994715829,36.20887707787873,0 -116.9594631331011,36.20940894048606,0 
				</coordinates>
			</LineString>
		</Placemark>
		<Placemark>
			<name>Untitled Path</name>
			<styleUrl>#m_ylw-pushpin</styleUrl>
			<LineString>
				<tessellate>1</tessellate>
				<coordinates>
					-116.9586433197143,36.20949276375422,0 -116.9586885203369,36.21002295351878,0 
				</coordinates>
			</LineString>
		</Placemark>
		<Placemark>
			<name>Untitled Path</name>
			<styleUrl>#m_ylw-pushpin</styleUrl>
			<LineString>
				<tessellate>1</tessellate>
				<coordinates>
					-116.9597848540216,36.20829376696032,0 -116.9597979850834,36.20853620579762,0 
				</coordinates>
			</LineString>
		</Placemark>
		<Placemark>
			<name>Untitled Path</name>
			<styleUrl>#m_ylw-pushpin</styleUrl>
			<LineString>
				<tessellate>1</tessellate>
				<coordinates>
					-116.962372049299,36.20842934065801,0 -116.9622776827468,36.20866437838154,0 
				</coordinates>
			</LineString>
		</Placemark>
		<Placemark>
			<name>Untitled Path</name>
			<styleUrl>#m_ylw-pushpin</styleUrl>
			<LineString>
				<tessellate>1</tessellate>
				<coordinates>
					-116.966716583907,36.20758591796925,0 -116.9669247644253,36.20790770978486,0 
				</coordinates>
			</LineString>
		</Placemark>
		<Placemark>
			<name>Untitled Path</name>
			<styleUrl>#m_ylw-pushpin</styleUrl>
			<LineString>
				<tessellate>1</tessellate>
				<coordinates>
					-116.965490399757,36.20841604380336,0 -116.965553583471,36.20886027172041,0 
				</coordinates>
			</LineString>
		</Placemark>
	</Folder>
</Document>
</kml>
