site_id,latitude_utm,longitude_utm,distance_m,means_mm,stdevs_mm,D25_mm,D50_mm,D75_mm,D84_mm,D90_mm
G10F-8,4069682.62482681,488528.547650084,431.50360251319,59.35,61.2991293439464,25,42.5,64.5,91,118
G10F-9,4069652.89772352,488529.57861086,459.801153670327,79.16,57.9981963433159,44,61.5,87.5,123,153.5
G10F-10,4069621.71763241,488532.12472348,489.306685875162,64.64,58.3879380962497,28.5,52,79,98.5,105.5
G10F-11,4069592.31990822,488537.350483914,516.685311083003,72.98,44.7153157750921,34,67.5,107,123,136.5
G10F-12,4069560.80748258,488538.736058256,547.175566565739,53.3168316831683,38.2097469854349,20,50,75,87,103
G10F-13,4069544.92787163,488551.208588105,560.356703330856,55.594,30.0203145541248,35,51,70,89,97.5
G10F-14,4069513.40747035,488565.177337268,589.185825952557,50.795,26.6965093257625,32.5,49.5,67,75.5,86
G10F-15,4069487.00144155,488565.498956085,615.27378445614,65.7,34.290779894289,42.5,60,82.5,95.5,115
G10F-16,4069455.04150084,488581.341361353,645.019386741076,48.686,28.7228463803712,27,42,65,79,92.5
G10F-17,4069427.93531162,488604.240555618,669.966187780145,49.6916666666667,30.6176645746246,26,45.5,70,80,89
G10F-18,4069396,488596,702.428888087215,57.46,36.1367816317207,34,48,73.5,90.5,105
