site_id,latitude_utm,longitude_utm,distance_m,means_mm,stdevs_mm,D25_mm,D50_mm,D75_mm,D84_mm,D90_mm
G10A-1,4070096.23018219,488651.534887727,0.000902234418560184,22.158264947245,20.3906820037371,7,17,30,37,45
G10A-2,4069981.65409511,488635.230712105,115.730308009494,26.2985148514851,28.846138574114,8,17,34.5,45,55
G10A-3,4069824.07206497,488600.485609227,276.904473767025,37.9069306930693,31.4494747777064,12,35,53,64,73
G10A-4,4069759.93211161,488470.387041807,381.983202856458,29.555,24.4907524322034,9.5,24,47,54.5,62
G10A-5,4069714.58067298,488357.696101278,481.661709201339,24.915,24.9583666734565,6,17,36.5,44,52.5
G10A-11,4069605.0863617,488202.802810359,665.269417939811,33.97,29.9122478970979,10,27,50,63,76
G10A-10,4069545.85647067,488116.602753092,767.505320950237,45.38,28.9861970593247,25.5,38.5,61,74.5,80.5
G10A-9,4069471.86741785,488033.415060222,878.579488663895,37.3,23.9181355402293,17,35.5,55,60,66.5
G10A-8,4069387.43829424,487962.973000579,988.182397697702,35.5250501002004,34.7490520250915,9,24,56,72,85
G10A-7,4069295.7623436,487922.594619693,1082.63740960413,37.862,28.4035144297883,13,33,57,64,78.5
G10A-6,4069231.44292751,487827.546990838,1194.49331856118,33.3152610441767,28.2824785381421,10,26,50,61,70
