site_id,latitude_utm,longitude_utm,distance_m,means_mm,stdevs_mm,D25_mm,D50_mm,D75_mm,D84_mm,D90_mm
G8B-1,4069413.6389378,489645.421747065,544.93157589998,38.87,29.5962952760885,18,34.5,50.5,60.5,72
G8B-2,4069328.51178473,489587.667590394,640.004981893576,50.2388059701493,34.2107853633153,26,45,69,81,92
G8B-3,4069220.18346114,489547.642397089,738.08709357339,46.64,30.1327263638692,24,41,64.5,76.5,87
G8B-4,4069129.05868648,489498.354009332,835.468685949463,58.2,36.6594379585817,38,51,74,87.5,104
G8B-5,4069030.10334325,489503.498704797,902.252349443853,36.4636363636364,25.0293680663539,15,34.5,55,63,71
G8B-6,4068939.67276644,489434.400776551,1015.69131908555,59.76,38.3375713489738,33,48.5,73,89.5,115
G8B-7,4068842.20722572,489400.272685877,1111.84279273904,57.2666666666667,35.9606727744041,30,47.5,81.5,96,106
G8B-8,4068753.53638277,489344.826882467,1215.56341917104,58.79,37.5426003985403,33.5,52,73.5,88.5,101
G8B-9,4068658.75054283,489294.638836812,1320.95785689956,52.66,38.8486205872512,21.5,45,70.5,86.5,102.5
G8B-10,4068585.18339245,489221.988535937,1423.73504607938,59.8009950248756,32.1672196793209,35,53,81,92,104
G8B-11,4068505.17156739,489158.074164276,1526.14080266959,46.454,28.2429398321962,27.5,43,58.5,68,82
