site_id,latitude_utm,longitude_utm,distance_m,means_mm,stdevs_mm,D25_mm,D50_mm,D75_mm,D84_mm,D90_mm
G8D-1,4069458.96285899,489587.288026744,575.074531553954,65.5323383084577,45.7313084374926,34,55,86,105,132
G8D-2,4069286.1393,489497.836480264,738.027974907411,66.18,42.0992260556352,36.5,61,93,101.5,111
G8D-3,4069123.31847188,489388.218763838,922.785543429226,55.3300970873786,50.3392488207015,18,35,80,105,135
G8D-4,4068993.72549956,489230.448343643,1126.93563737547,61.304,45.5636169363109,26.5,56,81.5,103,118
G8D-5,4068900.9970112,489047.457917443,1328.41777790302,51.6889763779528,34.385149902934,22,50,72.5,83,95
G8D-10,4068800.38335446,488882.130359012,1521.16906222575,54.2436345481777,32.7874332677754,33,52,69,82,92
G8D-9,4068688.43787155,488724.459343529,1714.52343429708,59.4376869391825,44.7217035253766,28,53,77,89,115
G8D-8,4068573.5104413,488559.994925414,1915.130607695,59.99,41.1365910341652,22.5,61.5,82.5,95.5,108
G8D-7,4068492.23298503,488370.046341018,2117.11463245127,82.9,45.042789492755,53,72,104,119,137
G8D-6,4068384.76456006,488195.581323972,2321.75436977024,70.2666666666667,35.4758423835349,47,68,90,105,116.5
G8D-13,4068321.24950823,488002.440536723,2517.6080196174,68.7909090909091,38.5315735623164,44,62,89,106,124.5
