site_id,latitude_utm,longitude_utm,distance_m,means_mm,stdevs_mm,D25_mm,D50_mm,D75_mm,D84_mm,D90_mm
GC-B-1,3985689,506747,67.1721890710651,88.8994708994709,83.7532083234537,38,63,120,161,185
GC-B-2,3985928.66612293,507178.761875112,551.186553843602,81.9207920792079,43.9343196305179,50,75,105,119,131
GC-B-3,3986079.68859327,507647.00874599,1041.06481028387,91.03,53.6670952792456,50,80.5,125,139.5,166
GC-B-4,3986302.11506578,507951.094888366,1409.0500642319,86.63,59.9571729341755,41,77.5,119.5,142,161
GC-B-5,3986409.28119476,508566.398075972,2017.43334087126,69.725,48.2278132118455,34.5,62,88,107,125.5
GC-B-6,3986515.1766211,508980.581244162,2442.72395242364,83.78,55.8816058769574,47,70.5,105,120,141
GC-B-7,3986772.35993301,509481.267656203,3001.63786798861,89.21,57.7375030801138,54,86,122,145,163.5
GC-B-8,3986954.0410719,509978.226613836,3530.70088703435,83.19,50.1159162393146,50.5,67,103,128,155.5
GC-B-9,3987289.02066171,510563.63422138,4198.39498303885,82.2,54.0798711467237,45,67,107,131,152
GC-B-10,3987497.08223642,511351.323828541,5007.21016698556,80.79,55.6801214760957,45.5,75.5,110.5,129.5,149
GC-B-11,3987670.50282528,511978.574485642,5655.19320928875,93.86,63.8694632107785,51.5,80,118.5,142,163
GC-B-12,3987667.80373862,512735.873023232,6369.39800221696,88.08,66.7143064107541,37.5,68.5,134.5,162,179
GC-B-13,3987649.62827969,513488.691692567,7083.9588742301,65.93,44.4605755054681,35,60.5,84,105,116
GC-B-14,3987577.19280949,514187.907789697,7740.46409073145,55.0693069306931,43.3729311673789,25,43.5,73,94,111
