site_id,latitude_utm,longitude_utm,distance_m,means_mm,stdevs_mm,D25_mm,D50_mm,D75_mm,D84_mm,D90_mm
HP-B-1,4007185.69948997,503951.864562503,2100.60173381902,79.395,52.1101767609002,42,71,102.5,118.5,145.5
HP-B-2,4007259.24875157,504434.439460749,2586.93451942344,77.9435897435897,49.7378696254206,46,67,95,120,133
HP-B-6,4007283.43323308,504858.607115748,3006.4018620559,85.01,48.7307640894015,57,75,96,124,142
HP-B-7,4007182.64123421,505813.19175301,3931.46771531696,90.910447761194,60.5827337524213,52,73,117,142,175
HP-B-8,4007098.91638692,506466.565323751,4571.52027486574,93.09,48.2503337757462,56.5,86.5,124,145.5,163.5
HP-B-9,4007035.01506735,507026.988817795,5124.84220803701,89.6138613861386,62.5900630896366,42,80,125,151,158
HP-B-10,4007109.72784356,507753.50579783,5854.87138400153,80.9306930693069,50.4904664781734,48,70,105,123,151
HP-B-11,4007274.38561534,508527.024298695,6639.38535308935,104.39,72.395732016476,50.5,91.5,143,172,196
HP-B-5,4007772.62825964,509072.215198794,7241.31718815599,84.38,60.2143519172764,47.5,67.5,104,124.5,153
HP-B-4,4007830.56638235,509726.137712776,7896.5614190226,84.505,63.1247055267968,38,70.5,121,151.5,170
HP-B-3,4008100.72384522,510458.17389118,8661.78503067927,84.105,71.4747846410465,33,64.5,120,142,181
