site_id,latitude_utm,longitude_utm,distance_m,means_mm,stdevs_mm,D25_mm,D50_mm,D75_mm,D84_mm,D90_mm
SO1-4-4,3980962,527073,100.651433909576,60.956,49.4316539561571,25,49,77,99,129
SO1-4-3,3980962,527045,117.501784816804,59.33,48.4646260895327,30,52,77,85,97
SO1-4-5,3980871,526874,307.066529588632,71.0357852882704,68.0453723102599,30,53,85,105,144
SO1-4-2,3981365,527207,327.143118699196,79.925,73.6647271372288,33,61.5,106.5,131.5,161
SO1-4-1,3981513,527339,511.672437974424,60.56,55.4276431247278,19.5,49,82,104,136
SO1-4-6,3980859,526649,511.962150425274,68.558,48.1537798584021,35,59,95,108,130.5
SO1-4-7,3980893,526408,733.29598167969,68.4484978540773,62.0037636834247,28,55,87,110,134
SO1-4-8,3980833,526203,946.476866882858,68.716,55.5311418464585,35,57,80,110,137
SO1-4-9,3980716,526025,1148.7811302449,60.288,60.2273342360335,22,41,78,99.5,143.5
SO1-4-10,3980545,525899,1324.99185215715,52.846,39.4187984109973,27,44,72,90,105
SO1-4-11,3980419,525717,1541.94430844901,72.29,48.3624920021517,39,62.5,99,114,136.5
SO1-4-12,3980312,525516,1769.18188636932,54.1044776119403,48.6513714679945,21,43,72,86,120
SO1-4-13,3980178,525374,1955.07859510901,54.785,46.5254256995428,21.5,44.5,73.5,88.5,115.5
SO1-4-14,3980088,525191,2159.01068114393,49.8038277511962,47.8374803222353,17,33,67,97,115
SO1-4-15,3979972,525021,2363.03463507136,35.51,33.8064222806665,8,24.5,51,73,90
SO1-4-16,3979967,524739,2619.29375422662,27.9087261785356,29.6043169552627,6,18,38,55,72
