site_id,latitude_utm,longitude_utm,distance_m,means_mm,stdevs_mm,D25_mm,D50_mm,D75_mm,D84_mm,D90_mm
SO2-2-13,3979897.5231485,528006.99703053,237.136964230034,57.86,43.3708254803881,23,46,84,103,124
SO2-2-12,3979792.95433672,527978.114199914,339.840383411944,58.49,40.2752046451777,32,50,77.5,92,110.5
SO2-2-11,3979713.76920752,527912.720208877,423.972432984252,55.07,42.2163868933884,25,49,77,89,98.5
SO2-2-10,3979554.7739845,527753.525715037,619.825403299586,56.84,49.7680830071702,25.5,45,69.5,96.5,122.5
SO2-2-9,3979460.20007952,527695.570735796,729.215899084636,58.89,46.0292273341285,31.5,50,69.5,83.5,111.5
SO2-2-8,3979377.94463206,527640.371272655,826.632199420146,58.73,53.246038482327,32.5,45,65,88,117
SO2-2-7,3979284.71277023,527582.860577237,935.32181141032,56.9607843137255,44.1394099408346,25,45.5,72,107,121
SO2-2-6,3979247.28073281,527460.065916523,1025.50887051187,51.56,45.7352771015678,20,43,66,77,98.5
SO2-2-5,3979195.40895238,527366.081892433,1119.05433750986,47.375,38.7965505788309,23,37,62.5,73,94
SO2-2-4,3979128.02329578,527275.30110692,1225.71268936016,47.1089108910891,34.5399370011922,24,39,66,81,89
SO2-2-3,3979073.39429484,527185.020603127,1322.8907885416,52.3611111111111,40.356651117758,23.5,38,69.5,90,103
SO2-2-2,3979050.69621206,527089.951334563,1399.40332560287,58.55,75.283160503699,28,46.5,71,83,96
SO2-2-1,3979012.48167883,526997.995303034,1488.00015997938,53.49,37.2237620458502,23,46,77.5,94,99.5
SO2-2-14,3979276.63950753,526474.06717668,1729.94819094045,40.72,29.4945519182658,18,37,59,69.5,82.5
SO2-2-15,3979218.48847883,526313.094575144,1898.82774804201,49.98,36.1083090298912,23.5,47.5,64,79,96
SO2-2-16,3979281.54293862,526183.411781903,1985.61750745129,45.16,34.8496176390067,19.5,34,63.5,79,102.5
SO2-2-17,3979333.74868223,526021.569983165,2112.66849844917,38.41,24.1138974038787,21,35,49,55,65.5
