site_id,latitude_utm,longitude_utm,distance_m,means_mm,stdevs_mm,D25_mm,D50_mm,D75_mm,D84_mm,D90_mm
SO2-3b-1,3979274.90493796,527176.642813654,1173.4698111579,67.755,53.977461330013,27,53,92.5,115.5,130.5
SO2-3b-2,3979204.28305181,527042.766337869,1317.38095524066,57.485,46.2845978852588,24,49,74.5,101,130
SO2-3b-3,3979204.77520419,526805.596917266,1494.69585025811,63.81,53.0141957450542,27,50,80,99.5,117
SO2-3b-0,3979197,525574,2579.06564299763,52.81,32.8569910093093,27,51.5,70.5,81,94.5
SO2-3b-0_5,3979084,525525,2667.16380479699,63.1,42.9352342888039,31,57,84.5,98.5,116
SO2-3b-0_6,3978944,525498,2749.57786276809,53.29,39.3576015793669,18.5,47,80,90.5,108.5
SO2-3b-0_7,3978833,525500,2797.58796487833,47.07,31.0915063671223,22,43.5,63,72,91.5
