site_id,latitude_utm,longitude_utm,distance_m,means_mm,stdevs_mm,D25_mm,D50_mm,D75_mm,D84_mm,D90_mm
T1C-1,4049318.53166713,490050.036699052,1314.12784803671,56.946,39.8965444296347,28,51.5,72,87,101.5
T1C-2,4049443.64758292,489964.666139356,1465.59270874012,59.8118811881188,39.7707842038785,26,54,90,96,106
T1C-3,4049598.62553783,489953.129132913,1602.32282682373,61.286,40.0201494904315,28,58,80,92,116
T1C-4,4049734.57293881,489892.552689096,1750.06069348947,60.949,40.8746556284847,33,51,79,94.5,112
T1C-5,4049880.38134563,489851.399757877,1896.86577074237,53.615,39.5684639749146,21,48,73,86.5,97
T1C-6,4050016.48650251,489760.505172644,2060.11830046149,55.835,44.9257120918597,22,46,73,95,120.5
T1C-7,4050168.27198478,489729.827907574,2207.59475306321,58.46,39.2084446288423,28.5,51.5,77.5,90,106
T1C-8,4050313.09046021,489676.872288692,2360.21750351404,57.11,47.7573656789989,25,49.5,70,92.5,105
T1C-9,4050454.37466007,489610.587532899,2516.09384607724,56.85,33.828419061399,29,53.5,75,88.5,98
T1C-10,4050554.06521161,489549.084106961,2632.97847119216,49.4411764705882,34.275826870634,21,48,68,78,93
