site_id,latitude_utm,longitude_utm,distance_m,means_mm,stdevs_mm,D25_mm,D50_mm,D75_mm,D84_mm,D90_mm
UB-C-1,4105970.38829485,459072.463659222,448.95455498731,57.26,55.920703791273,19.5,35,83.5,98,127.5
UB-C-2,4105703.80352266,458890.328494407,769.452876856727,57.41,59.9151139704181,16.5,40,69,98.5,141.5
UB-C-3,4105561.03846886,458660.265807601,1029.76025353635,51.66,48.2163549191375,21,38.5,64.5,87.5,99.5
UB-C-4,4105498.50327018,458427.3910781,1243.48973883171,76.18,50.9339476842579,43,61,102.5,122.5,158.5
UB-C-5,4105435.26237508,458180.823453872,1477.2640199477,67.08,58.5014174322654,30,47.5,87,112.5,135
UB-C-6,4105403.87750598,457934.144137051,1700.11349991704,61.13,48.6921984820905,22,52,78.5,106,138.5
UB-C-7,4105370.01182554,457695.804187725,1923.16029758497,58.24,40.0614888925667,30,45,76,106,123
UB-C-8,4105315.56240826,457448.915778188,2166.9165485605,55.99,55.990743845206,19,42,70.5,103,131.5
UB-C-9,4105295.07507838,457198.996875391,2400.9157206379,58.95,36.5094617062393,33.5,52.5,78.5,90,115
UB-C-10,4105238.02398597,456965.420249789,2637.39614793178,61.51,51.4575037042089,25.5,49,83,117.5,137.5
UB-C-11,4105195.92121746,456715.920018976,2883.47861980137,60.15,41.9011106094712,29.5,55.5,75.5,94.5,110
UB-C-12,4105182.80496335,456505.225985667,3083.98680232049,44.99,34.8616039955611,19,34.5,64,79.5,101
